<?xml version="1.0" encoding="UTF-8"?>
<svg xmlns="http://www.w3.org/2000/svg" width="180" height="180" viewBox="0 0 180 180" fill="none">
  <g clip-path="url(#clip0_1603_19662)">
    <path fill-rule="evenodd" clip-rule="evenodd" d="M87.8264 118.628C87.8335 117.98 87.7099 117.338 87.4627 116.739C87.2156 116.14 86.8501 115.597 86.3881 115.143C85.9261 114.689 85.3772 114.333 84.7742 114.096C84.1713 113.859 83.5267 113.746 82.8791 113.765C82.218 113.785 81.5681 113.94 80.9691 114.22C80.3701 114.5 79.8346 114.9 79.3956 115.395C78.9565 115.889 78.623 116.468 78.4156 117.096C78.2083 117.724 78.1313 118.388 78.1895 119.047C79.0463 128.709 80.8177 148.537 80.8177 148.537L87.4721 148.994C87.4721 148.994 87.7104 128.381 87.8264 118.628Z" fill="#965941"></path>
    <path fill-rule="evenodd" clip-rule="evenodd" d="M97.7917 149.606C98.144 149.694 98.4591 149.892 98.691 150.171C98.9228 150.45 99.0591 150.796 99.0801 151.159C99.1025 151.544 99.0006 151.925 98.7895 152.248C98.5784 152.57 98.2693 152.816 97.9077 152.95C96.4386 153.53 94.8855 153.869 93.3083 153.955H80.6825C80.4112 153.956 80.1498 153.853 79.9538 153.665C79.7577 153.477 79.6425 153.221 79.6325 152.95C79.5504 151.487 79.5913 150.019 79.7549 148.563C79.8666 147.545 80.1406 146.551 80.5665 145.619C80.5665 145.619 82.0223 147.384 83.272 147.126C84.3494 146.762 85.3789 146.268 86.3383 145.658C86.7628 145.434 87.2366 145.322 87.7162 145.329C88.1957 145.337 88.6655 145.466 89.0825 145.703C91.015 146.824 94.3132 148.717 95.711 149.078L97.7917 149.606Z" fill="#E54D4D"></path>
    <path fill-rule="evenodd" clip-rule="evenodd" d="M99.093 151.126V151.159C99.1154 151.543 99.0135 151.925 98.8024 152.248C98.5913 152.57 98.2822 152.816 97.9205 152.949C96.4515 153.53 94.8984 153.869 93.3211 153.954H80.6825C80.4111 153.956 80.1498 153.852 79.9538 153.665C79.7577 153.477 79.6425 153.221 79.6325 152.949V151.616L85.9067 151.564C86.3271 151.559 86.746 151.616 87.15 151.732L87.8714 151.945C91.5894 153.022 95.5706 152.732 99.093 151.126Z" fill="#FFB4B4"></path>
    <path fill-rule="evenodd" clip-rule="evenodd" d="M63.483 63.0747C64.9026 62.8795 66.3484 63.0928 67.6512 63.6894C68.954 64.286 70.0599 65.2414 70.8395 66.4437C74.7045 72.4539 81.7067 85.1247 86.1515 103.413C87.6347 109.944 88.5954 116.583 89.0245 123.266L75.1104 123.202C75.1104 123.202 74.7947 118.97 74.4662 114.828C74.0779 109.557 72.618 104.421 70.176 99.7346L56.8802 74.1609C56.3216 73.0895 56.0288 71.8994 56.0264 70.6911C56.0241 69.4827 56.3123 68.2915 56.8668 67.2179C57.4213 66.1443 58.2258 65.2198 59.2124 64.5223C60.1991 63.8247 61.339 63.3746 62.5361 63.21L63.483 63.0747Z" fill="#182764"></path>
    <path d="M62.6136 79.4777L59.2766 80.6489L65.9518 99.6677L69.2888 98.4965L62.6136 79.4777Z" fill="black"></path>
    <path fill-rule="evenodd" clip-rule="evenodd" d="M146.272 112.483C150.859 112.483 155.342 113.843 159.156 116.391C162.97 118.939 165.942 122.561 167.697 126.798C169.452 131.036 169.912 135.699 169.017 140.197C168.122 144.696 165.913 148.828 162.67 152.071C159.427 155.314 155.295 157.523 150.796 158.418C146.298 159.312 141.635 158.853 137.398 157.098C133.16 155.343 129.538 152.37 126.99 148.557C124.442 144.743 123.082 140.26 123.082 135.673C123.082 129.523 125.525 123.624 129.874 119.275C134.223 114.926 140.122 112.483 146.272 112.483ZM146.272 106.041C152.133 106.041 157.862 107.779 162.735 111.035C167.608 114.291 171.406 118.919 173.649 124.333C175.891 129.748 176.478 135.706 175.335 141.454C174.192 147.202 171.369 152.482 167.225 156.626C163.081 160.77 157.801 163.592 152.053 164.736C146.305 165.879 140.347 165.292 134.933 163.049C129.518 160.807 124.89 157.009 121.634 152.136C118.378 147.263 116.64 141.534 116.64 135.673C116.642 127.815 119.765 120.28 125.322 114.724C130.878 109.169 138.414 106.047 146.272 106.047V106.041Z" fill="black"></path>
    <path fill-rule="evenodd" clip-rule="evenodd" d="M39.0817 112.483C43.6683 112.483 48.1519 113.843 51.9655 116.391C55.7791 118.939 58.7515 122.561 60.5067 126.798C62.2619 131.036 62.7212 135.699 61.8264 140.197C60.9316 144.696 58.7229 148.828 55.4797 152.071C52.2365 155.314 48.1044 157.523 43.6059 158.418C39.1074 159.312 34.4446 158.853 30.2072 157.098C25.9697 155.343 22.3479 152.37 19.7997 148.557C17.2515 144.743 15.8914 140.26 15.8914 135.673C15.8914 129.523 18.3347 123.624 22.6837 119.275C27.0327 114.926 32.9313 112.483 39.0817 112.483ZM39.0817 106.041C44.9424 106.041 50.6714 107.779 55.5444 111.035C60.4173 114.291 64.2153 118.919 66.4581 124.333C68.7009 129.748 69.2877 135.706 68.1443 141.454C67.001 147.202 64.1788 152.482 60.0347 156.626C55.8906 160.77 50.6107 163.592 44.8626 164.736C39.1146 165.879 33.1566 165.292 27.742 163.049C22.3275 160.807 17.6996 157.009 14.4436 152.136C11.1876 147.263 9.44971 141.534 9.44971 135.673C9.45142 127.815 12.5741 120.28 18.131 114.724C23.6879 109.169 31.2239 106.047 39.0817 106.047V106.041Z" fill="black"></path>
    <path d="M43.652 140.224C46.1752 137.701 46.1752 133.61 43.652 131.087C41.1288 128.564 37.0378 128.564 34.5146 131.087C31.9914 133.61 31.9914 137.701 34.5146 140.224C37.0378 142.748 41.1288 142.748 43.652 140.224Z" fill="black"></path>
    <path d="M131.08 98.0541L127.641 99.627L144.822 137.188L148.261 135.616L131.08 98.0541Z" fill="black"></path>
    <path fill-rule="evenodd" clip-rule="evenodd" d="M60.8419 98.8263C60.724 98.5155 60.6835 98.1807 60.7239 97.8507C60.7643 97.5208 60.8844 97.2056 61.0738 96.9324C61.2637 96.6588 61.5169 96.435 61.8119 96.2802C62.1069 96.1255 62.4349 96.0442 62.768 96.0435H71.0327C71.2006 96.0432 71.3647 96.0935 71.5037 96.1877C71.6427 96.2819 71.7502 96.4157 71.8122 96.5717L82.9886 123.691C83.2583 124.348 83.7172 124.909 84.3068 125.303C84.8965 125.698 85.5902 125.908 86.2997 125.907H89.7975C90.3557 125.907 90.9062 125.777 91.405 125.526C91.9039 125.276 92.3372 124.912 92.6705 124.464C97.9528 117.346 120.937 86.4131 120.937 86.4131H127.778L134.271 101.409C134.322 101.524 134.343 101.649 134.333 101.773C134.323 101.898 134.281 102.018 134.213 102.122C134.144 102.227 134.051 102.312 133.94 102.371C133.83 102.43 133.707 102.46 133.582 102.459H128.918L127.675 99.9858C127.618 99.8717 127.532 99.7744 127.426 99.7033C127.319 99.6322 127.197 99.5897 127.069 99.58C126.945 99.5724 126.82 99.5969 126.707 99.651C126.594 99.7051 126.497 99.7871 126.425 99.8892L103.467 132.433C102.035 134.468 100.135 136.13 97.926 137.277C95.7174 138.424 93.2653 139.022 90.7767 139.023H40.267C39.8212 139.023 39.3797 138.935 38.9679 138.764C38.556 138.594 38.1817 138.344 37.8665 138.028C37.5513 137.713 37.3012 137.339 37.1306 136.927C36.96 136.515 36.8722 136.074 36.8722 135.628C36.8713 135.182 36.9586 134.74 37.1289 134.328C37.2992 133.916 37.5492 133.541 37.8646 133.226C38.18 132.91 38.5546 132.66 38.9669 132.49C39.3791 132.32 39.8209 132.232 40.267 132.233H70.9361C71.2158 132.233 71.4914 132.165 71.7392 132.036C71.987 131.906 72.1998 131.718 72.3593 131.489C72.5188 131.259 72.6203 130.994 72.6552 130.716C72.69 130.439 72.6572 130.157 72.5594 129.895C70.1438 123.498 63.4379 105.719 60.8419 98.8263Z" fill="#20DFCC"></path>
    <path fill-rule="evenodd" clip-rule="evenodd" d="M60.3523 97.6347C60.2827 97.452 60.2586 97.255 60.2822 97.0608C60.3058 96.8666 60.3763 96.6811 60.4876 96.5203C60.5995 96.3606 60.7478 96.23 60.9204 96.1392C61.0929 96.0484 61.2847 96.0002 61.4796 95.9985H71.0972C71.2737 96.0011 71.4453 96.0573 71.5891 96.1597C71.733 96.2621 71.8422 96.4058 71.9024 96.5718C72.3082 97.6476 73.1907 99.9087 73.1907 99.9087L62.8839 104.302C62.8839 104.302 61.2671 100.05 60.3523 97.6347Z" fill="black"></path>
    <path fill-rule="evenodd" clip-rule="evenodd" d="M52.7704 79.4432C52.6869 78.9605 52.7098 78.4653 52.8377 77.9924C52.9655 77.5194 53.1952 77.0801 53.5106 76.7052C53.826 76.3303 54.2195 76.0289 54.6635 75.822C55.1076 75.615 55.5915 75.5077 56.0815 75.5073H72.5916C73.2102 75.509 73.803 75.755 74.241 76.1918C74.6789 76.6286 74.9266 77.2207 74.93 77.8392C74.93 78.452 74.6874 79.04 74.2553 79.4745C73.8232 79.909 73.2367 80.1549 72.6238 80.1583L65.4478 80.1969C64.6179 80.2023 63.7988 80.3846 63.045 80.7316L59.9336 82.1745C59.2261 82.5029 58.4524 82.6638 57.6726 82.6448H56.4615C55.5754 82.619 54.725 82.2894 54.053 81.7112C53.381 81.133 52.9281 80.3414 52.7704 79.469V79.4432Z" fill="black"></path>
    <path fill-rule="evenodd" clip-rule="evenodd" d="M8.32241 125.179C9.72911 121.07 11.9427 117.283 14.8332 114.04C17.7237 110.798 21.2329 108.166 25.1547 106.299L26.9133 105.461L25.2384 101.938L23.4798 102.775C19.0877 104.868 15.1575 107.816 11.9198 111.448C8.68207 115.079 6.20196 119.321 4.62485 123.923L3.98067 125.772L7.67179 127.028L8.32241 125.179Z" fill="black"></path>
    <path fill-rule="evenodd" clip-rule="evenodd" d="M18.6292 99.7026V110.499H20.755C27.2149 110.493 33.4958 112.621 38.6215 116.553C43.7472 120.484 47.4304 125.999 49.0986 132.24H69.3257C68.3628 123.303 64.1311 115.038 57.4439 109.032C50.7566 103.026 42.0857 99.7033 33.0973 99.7026H18.6292Z" fill="black"></path>
    <path d="M146.181 140.45C148.743 140.424 150.799 138.327 150.773 135.766C150.747 133.204 148.65 131.148 146.088 131.174C143.527 131.199 141.471 133.297 141.497 135.858C141.522 138.42 143.62 140.476 146.181 140.45Z" fill="black"></path>
    <path fill-rule="evenodd" clip-rule="evenodd" d="M120.918 86.4134L118.599 80.1521C118.398 79.6047 118.315 79.0212 118.355 78.4396C118.395 77.858 118.557 77.2914 118.83 76.7766L120.563 73.5557C120.874 72.9729 121.038 72.3226 121.04 71.6619V65.7806L125.433 65.5938C125.433 65.5938 125.433 70.3993 125.433 72.422C125.433 73.0043 125.33 73.582 125.13 74.1291L124.08 77.0536C123.959 77.3597 123.959 77.7009 124.08 78.007C124.853 79.8429 127.643 86.3812 127.643 86.3812L120.918 86.4134Z" fill="black"></path>
    <path fill-rule="evenodd" clip-rule="evenodd" d="M115.945 66.2957H125.44V64.9042C125.44 64.4088 125.243 63.9336 124.893 63.5833C124.542 63.2329 124.067 63.0361 123.572 63.0361H115.945V66.2957Z" fill="black"></path>
    <path fill-rule="evenodd" clip-rule="evenodd" d="M115.874 67.0814C115.398 67.0814 114.934 66.9405 114.539 66.6765C114.144 66.4125 113.836 66.0372 113.654 65.5981C113.472 65.1591 113.424 64.676 113.517 64.2099C113.61 63.7438 113.839 63.3157 114.175 62.9796C114.511 62.6436 114.939 62.4148 115.405 62.322C115.871 62.2293 116.354 62.2769 116.793 62.4588C117.232 62.6406 117.607 62.9486 117.872 63.3437C118.136 63.7389 118.276 64.2034 118.276 64.6786C118.276 65.3159 118.023 65.9271 117.573 66.3777C117.122 66.8283 116.511 67.0814 115.874 67.0814Z" fill="black"></path>
    <path d="M94.3878 125.852L84.2806 154.473L86.5401 155.271L96.6474 126.65L94.3878 125.852Z" fill="#181A20"></path>
    <path fill-rule="evenodd" clip-rule="evenodd" d="M95.7368 154.843C95.7377 154.71 95.7119 154.577 95.6611 154.453C95.6102 154.329 95.5353 154.217 95.4406 154.122C95.3459 154.027 95.2334 153.952 95.1095 153.901C94.9856 153.851 94.8529 153.825 94.719 153.826H81.1914C81.0575 153.825 80.9247 153.851 80.8009 153.901C80.677 153.952 80.5644 154.027 80.4698 154.122C80.3751 154.217 80.3001 154.329 80.2493 154.453C80.1984 154.577 80.1727 154.71 80.1736 154.843C80.1786 155.107 80.2865 155.359 80.4742 155.544C80.662 155.729 80.9147 155.834 81.1785 155.836H94.7061C94.84 155.836 94.9728 155.811 95.0966 155.76C95.2205 155.709 95.333 155.634 95.4277 155.539C95.5224 155.445 95.5973 155.332 95.6482 155.208C95.699 155.084 95.7248 154.952 95.7239 154.818L95.7368 154.843Z" fill="#181A20"></path>
    <path fill-rule="evenodd" clip-rule="evenodd" d="M106.533 126.905C106.534 127.043 106.507 127.18 106.454 127.307C106.401 127.434 106.322 127.55 106.224 127.646C106.127 127.744 106.012 127.822 105.884 127.875C105.757 127.928 105.621 127.955 105.483 127.955H91.7558C91.4779 127.954 91.2118 127.843 91.0152 127.646C90.8187 127.45 90.7075 127.183 90.7058 126.905C90.705 126.767 90.7315 126.63 90.784 126.503C90.8365 126.375 90.9138 126.259 91.0114 126.161C91.1091 126.063 91.2252 125.986 91.353 125.934C91.4808 125.881 91.6177 125.855 91.7558 125.855H105.483C105.76 125.856 106.026 125.965 106.224 126.158C106.322 126.256 106.4 126.373 106.453 126.501C106.506 126.629 106.534 126.767 106.533 126.905Z" fill="#181A20"></path>
    <path fill-rule="evenodd" clip-rule="evenodd" d="M91.0472 136.414C91.418 136.414 91.7804 136.524 92.0887 136.729C92.3969 136.935 92.6372 137.228 92.7791 137.571C92.921 137.913 92.9581 138.29 92.8857 138.654C92.8134 139.017 92.6349 139.351 92.3727 139.614C92.1106 139.876 91.7766 140.054 91.4129 140.127C91.0493 140.199 90.6724 140.162 90.3299 140.02C89.9873 139.878 89.6946 139.638 89.4886 139.33C89.2826 139.021 89.1727 138.659 89.1727 138.288C89.1727 137.791 89.3702 137.314 89.7217 136.963C90.0733 136.611 90.5501 136.414 91.0472 136.414Z" fill="#9597A0"></path>
    <path fill-rule="evenodd" clip-rule="evenodd" d="M100.091 88.2938C100.1 87.6337 99.9756 86.9786 99.7246 86.368C99.4736 85.7574 99.1015 85.204 98.6307 84.7411C98.16 84.2782 97.6004 83.9154 96.9857 83.6746C96.371 83.4339 95.7139 83.3201 95.054 83.3401C94.4022 83.3589 93.7608 83.5082 93.1677 83.7792C92.5746 84.0501 92.0418 84.4373 91.601 84.9178C91.1601 85.3983 90.8201 85.9623 90.6011 86.5765C90.3821 87.1907 90.2884 87.8425 90.3257 88.4935C90.9699 98.8003 92.3935 121.346 92.3935 121.346L99.7178 121.43C99.7178 121.43 99.9755 98.7101 100.091 88.2938Z" fill="#965941"></path>
    <path fill-rule="evenodd" clip-rule="evenodd" d="M109.393 121.501C109.746 121.588 110.061 121.786 110.293 122.065C110.524 122.345 110.661 122.691 110.682 123.053C110.706 123.438 110.605 123.819 110.395 124.142C110.185 124.464 109.877 124.711 109.516 124.844C108.045 125.427 106.49 125.768 104.91 125.856H92.284C92.0128 125.856 91.7521 125.75 91.5573 125.561C91.3625 125.373 91.2489 125.115 91.2405 124.844C91.1529 123.381 91.1916 121.914 91.3564 120.457C91.4681 119.439 91.7422 118.445 92.1681 117.513C92.1681 117.513 93.6304 119.279 94.8736 119.021C95.9509 118.656 96.9804 118.163 97.9399 117.552C98.3644 117.329 98.8382 117.216 99.3177 117.224C99.7973 117.232 100.267 117.36 100.684 117.597C102.617 118.718 105.921 120.612 107.313 120.973L109.393 121.501Z" fill="#E54D4D"></path>
    <path fill-rule="evenodd" clip-rule="evenodd" d="M110.695 123.021V123.054C110.718 123.438 110.618 123.82 110.408 124.142C110.198 124.465 109.89 124.711 109.529 124.844C108.058 125.427 106.502 125.768 104.923 125.856H92.284C92.0128 125.856 91.7521 125.75 91.5573 125.562C91.3625 125.373 91.2488 125.116 91.2405 124.844V123.511L97.5147 123.46C97.9351 123.454 98.3541 123.51 98.758 123.627L99.4795 123.84C103.195 124.916 107.174 124.626 110.695 123.021Z" fill="#FFB4B4"></path>
    <path fill-rule="evenodd" clip-rule="evenodd" d="M127.669 86.3682H149.029C149.029 86.3682 148.933 88.539 148.836 90.8774C148.771 92.399 148.121 93.8367 147.022 94.8906C145.922 95.9445 144.458 96.5329 142.935 96.5332H132.133L127.669 86.3682Z" fill="black"></path>
    <path fill-rule="evenodd" clip-rule="evenodd" d="M69.2548 54.5649L61.4281 59.6797C58.8859 61.341 57.018 63.8528 56.1588 66.7656C55.4098 69.2804 55.6116 71.9827 56.7258 74.3583C57.84 76.7339 59.7887 78.617 62.2011 79.6491L86.8279 90.1298C87.4201 90.3838 87.9255 90.8047 88.2825 91.3412C88.6394 91.8777 88.8323 92.5066 88.8377 93.151C88.8377 95.8758 88.8764 100.198 88.8764 100.198L101.541 100.082C101.541 100.082 102.726 89.5887 100.201 84.2227C95.8785 75.0561 78.2024 66.83 78.2024 66.83L80.9208 60.1048L69.2548 54.5649Z" fill="#1C2F7A"></path>
    <path fill-rule="evenodd" clip-rule="evenodd" d="M81.9515 39.4529L85.8165 32.8953L84.1417 28.2057C83.7212 27.0389 83.5999 25.7854 83.7888 24.5597C83.9777 23.334 84.4708 22.1751 85.223 21.1891C85.9751 20.203 86.9625 19.4212 88.0947 18.9151C89.2269 18.409 90.4679 18.1947 91.7043 18.2918L92.9926 18.3949C93.8442 18.4603 94.6735 18.6985 95.43 19.095C96.1864 19.4915 96.8542 20.0379 97.3925 20.701C97.9308 21.364 98.3283 22.1298 98.5609 22.9516C98.7934 23.7734 98.8561 24.634 98.7451 25.4808C98.6951 25.785 98.6196 26.0846 98.5196 26.3762C98.4436 26.6393 98.4665 26.9212 98.5841 27.1686C98.8804 27.8127 99.4666 29.0109 99.8144 29.7452C99.8464 29.8184 99.8628 29.8973 99.8628 29.9772C99.8628 30.057 99.8464 30.1359 99.8144 30.2091C99.7827 30.2837 99.7352 30.3506 99.6752 30.4051C99.6151 30.4596 99.5439 30.5004 99.4666 30.5247L98.5841 30.8017C98.5841 30.8017 98.5325 32.9468 98.5068 34.19C98.5004 34.4233 98.4058 34.6455 98.242 34.8117C98.0782 34.9779 97.8574 35.0757 97.6242 35.0855L94.7899 35.2014C94.6578 35.2094 94.5298 35.2501 94.4174 35.3198C94.305 35.3895 94.2116 35.4861 94.1457 35.6008L89.0374 44.3229L81.9515 39.4529Z" fill="#965941"></path>
    <path fill-rule="evenodd" clip-rule="evenodd" d="M96.7997 31.4005L98.5647 30.7563C98.6603 30.8067 98.7416 30.8803 98.8013 30.9704C98.8609 31.0604 98.897 31.164 98.9061 31.2717C98.9142 31.3786 98.8955 31.4859 98.8516 31.5838C98.8077 31.6816 98.7401 31.767 98.6549 31.8321C98.7431 31.9147 98.8133 32.0144 98.8614 32.1252C98.9094 32.236 98.9342 32.3555 98.9342 32.4763C98.9342 32.5971 98.9094 32.7165 98.8614 32.8273C98.8133 32.9382 98.7431 33.0379 98.6549 33.1205L98.5196 33.2493L96.7997 31.4005Z" fill="#693126"></path>
    <path fill-rule="evenodd" clip-rule="evenodd" d="M68.9134 49.618C68.3924 50.2829 67.8148 50.9015 67.187 51.4668L62.9161 55.3318C62.6854 55.5419 62.5078 55.8037 62.398 56.0958C62.2882 56.3879 62.2493 56.7019 62.2845 57.0119C62.3197 57.322 62.4281 57.6192 62.6006 57.8793C62.7731 58.1393 63.0049 58.3546 63.2769 58.5076L77.9447 66.7401L80.6052 68.0285C80.6052 68.0285 81.5328 65.0781 82.1641 63.0941C82.3335 62.5551 82.6418 62.0703 83.0579 61.6881C83.4739 61.3059 83.9832 61.0399 84.5346 60.9168L89.688 59.7637C90.98 59.4738 92.1127 58.7018 92.8549 57.6053C93.5971 56.5087 93.8929 55.1703 93.6819 53.8631C93.0699 50.1269 92.2647 45.1281 91.8073 42.3259C91.5827 40.9486 91.8326 39.5359 92.5159 38.3192L92.9153 37.6041L86.9309 33.7842C81.5696 35.9032 76.8708 39.4145 73.3195 43.9557L68.9134 49.618Z" fill="#FFB4B4"></path>
    <path fill-rule="evenodd" clip-rule="evenodd" d="M102.108 56.3558C101.042 56.1246 100.041 55.6574 99.1792 54.9885C98.3174 54.3197 97.6166 53.4661 97.1282 52.4907C95.5629 49.3407 93.1279 44.4579 91.3307 40.8956C90.7169 39.6566 89.6423 38.7073 88.3371 38.2509C87.0319 37.7946 85.5999 37.8675 84.3478 38.4542L83.7874 38.7183C83.0718 39.0563 82.4411 39.5504 81.9416 40.1643C81.4422 40.7782 81.0867 41.4963 80.9013 42.2657C80.7159 43.035 80.7053 43.8362 80.8703 44.6102C81.0354 45.3842 81.3718 46.1114 81.8549 46.7382L89.5849 56.8325C90.8839 58.5226 92.5275 59.9171 94.4067 60.9233C96.2859 61.9295 98.3576 62.5245 100.484 62.6687L113.774 63.4997L114.514 62.9843C114.854 62.7483 115.252 62.6111 115.665 62.5877C116.077 62.5644 116.488 62.6559 116.852 62.8522C117.216 63.0484 117.518 63.3416 117.725 63.6993C117.932 64.0569 118.036 64.465 118.025 64.8782C118.019 65.1888 117.933 65.4925 117.775 65.76C117.617 66.0275 117.392 66.2496 117.123 66.4049L115.951 67.0491C116.145 67.3664 116.453 67.5985 116.811 67.6989C117.169 67.7992 117.553 67.7604 117.884 67.5902L119.468 66.7721C119.781 66.6114 120.041 66.3647 120.218 66.0611C120.395 65.7575 120.481 65.4097 120.467 65.0586C120.428 64.176 120.376 62.9585 120.338 61.973C120.319 61.4942 120.142 61.0353 119.834 60.668C119.526 60.3008 119.105 60.0461 118.637 59.9438L102.108 56.3558Z" fill="#965941"></path>
    <path fill-rule="evenodd" clip-rule="evenodd" d="M95.1248 19.4385C95.9931 19.8318 96.7454 20.442 97.3095 21.2103C97.8736 21.9786 98.2305 22.8792 98.3457 23.8254L93.9073 32.1996C93.1022 33.7302 91.7497 34.901 90.1196 35.4785C87.9036 36.2515 84.599 37.3466 81.5779 38.0552C76.9269 39.1954 72.6818 44.7997 72.6818 44.7997C71.722 43.6892 71.0263 42.3758 70.647 40.9579C70.2677 39.54 70.2146 38.0546 70.4917 36.6133C70.7688 35.1719 71.3689 33.8121 72.2469 32.636C73.125 31.4599 74.2581 30.498 75.5613 29.8226L80.1027 27.4585C82.0985 26.4229 83.6354 24.6792 84.4122 22.5692C84.7363 21.6848 85.2398 20.877 85.8909 20.1963C86.5421 19.5157 87.3269 18.977 88.1961 18.6141C89.0653 18.2512 90.0002 18.0719 90.942 18.0874C91.8838 18.1028 92.8122 18.3129 93.669 18.7042L95.1248 19.4385Z" fill="#E54D4D"></path>
    <path fill-rule="evenodd" clip-rule="evenodd" d="M91.6463 19.3481L90.3579 19.8184L94.0362 35.2335C94.0776 35.402 94.1805 35.5489 94.3248 35.6455C94.469 35.742 94.644 35.7812 94.8156 35.7553C94.9213 35.7418 95.0229 35.7064 95.1139 35.6511C95.2049 35.5959 95.2834 35.5222 95.3441 35.4348C95.4048 35.3473 95.4465 35.2481 95.4664 35.1435C95.4864 35.0389 95.4841 34.9313 95.4598 34.8276C94.6353 31.5101 91.6463 19.3481 91.6463 19.3481Z" fill="black"></path>
    <path fill-rule="evenodd" clip-rule="evenodd" d="M101.219 24.1405C101.406 23.4448 100.922 22.208 100.188 20.8552C98.1911 17.1963 94.0297 14.9224 89.4754 15.0061C88.2302 15.014 87.0017 15.2936 85.8757 15.8254C84.7497 16.3573 83.7534 17.1285 82.9564 18.0853C82.213 18.9784 81.7108 20.0471 81.4977 21.1894C81.2845 22.3318 81.3676 23.5097 81.7389 24.6108C81.8813 25.0514 82.0535 25.4818 82.2542 25.8991C82.7245 26.7816 86.4994 26.6528 90.9055 26.2405C95.6209 25.8154 100.98 25.0295 101.219 24.1405Z" fill="#1C2F7A"></path>
    <path fill-rule="evenodd" clip-rule="evenodd" d="M70.8073 104.443L73.1778 110.041C73.1862 110.059 73.1909 110.078 73.1915 110.098C73.1921 110.117 73.1887 110.137 73.1814 110.155C73.1742 110.173 73.1632 110.189 73.1493 110.203C73.1354 110.217 73.1188 110.228 73.1005 110.235L72.6174 110.441C72.5815 110.456 72.5411 110.456 72.5049 110.442C72.4687 110.427 72.4397 110.399 72.4241 110.363L71.4192 107.98L68.5462 109.197C68.529 109.206 68.5103 109.21 68.4912 109.211C68.4721 109.211 68.4531 109.208 68.4355 109.201C68.4178 109.193 68.4019 109.182 68.3888 109.169C68.3757 109.155 68.3657 109.138 68.3594 109.12L68.1146 108.54C68.1063 108.523 68.1017 108.504 68.1011 108.485C68.1006 108.466 68.104 108.447 68.1113 108.43C68.1186 108.412 68.1296 108.396 68.1435 108.383C68.1574 108.37 68.1739 108.36 68.1919 108.354L71.0649 107.136L70.06 104.759C70.0517 104.742 70.0471 104.723 70.0465 104.704C70.046 104.685 70.0494 104.666 70.0567 104.648C70.064 104.631 70.075 104.615 70.0889 104.602C70.1028 104.589 70.1193 104.579 70.1373 104.572L70.6205 104.366C70.6376 104.358 70.6564 104.353 70.6755 104.353C70.6946 104.352 70.7136 104.356 70.7312 104.363C70.7489 104.37 70.7648 104.381 70.7779 104.395C70.791 104.409 70.801 104.425 70.8073 104.443ZM73.7061 111.291L73.9444 111.864C73.9599 111.899 73.9612 111.939 73.948 111.975C73.9348 112.011 73.9081 112.041 73.8735 112.058L70.3757 113.533C70.3584 113.54 70.3397 113.544 70.3209 113.544C70.3021 113.544 70.2835 113.54 70.2661 113.533C70.2487 113.526 70.2329 113.515 70.2196 113.502C70.2064 113.489 70.1959 113.473 70.1889 113.455L69.9441 112.876C69.9357 112.858 69.9311 112.84 69.9306 112.821C69.93 112.802 69.9335 112.783 69.9408 112.765C69.9481 112.747 69.9591 112.731 69.9729 112.718C69.9868 112.705 70.0033 112.695 70.0214 112.689L73.5128 111.214C73.5305 111.205 73.5496 111.201 73.5692 111.2C73.5887 111.199 73.6082 111.203 73.6263 111.21C73.6445 111.217 73.6609 111.228 73.6747 111.242C73.6884 111.256 73.6991 111.273 73.7061 111.291ZM74.4726 113.108L76.5597 118.048C76.5671 118.066 76.5709 118.084 76.571 118.103C76.5711 118.122 76.5675 118.141 76.5603 118.158C76.5531 118.175 76.5425 118.191 76.5291 118.204C76.5158 118.218 76.4999 118.228 76.4824 118.235L75.9929 118.441C75.9752 118.45 75.956 118.454 75.9365 118.455C75.9169 118.456 75.8975 118.452 75.8793 118.445C75.8612 118.438 75.8447 118.427 75.831 118.413C75.8173 118.399 75.8066 118.382 75.7996 118.364L74.0217 114.138L73.2294 114.473L74.7883 118.164C74.8034 118.2 74.8037 118.241 74.7893 118.277C74.7748 118.313 74.7467 118.342 74.711 118.358L74.3116 118.525C74.2944 118.533 74.2756 118.538 74.2566 118.539C74.2375 118.539 74.2185 118.536 74.2008 118.528C74.1832 118.521 74.1673 118.51 74.1542 118.496C74.1411 118.482 74.131 118.466 74.1248 118.448L72.5465 114.757L71.7478 115.092L73.5321 119.317C73.5405 119.335 73.5451 119.353 73.5456 119.372C73.5462 119.391 73.5427 119.41 73.5354 119.428C73.5281 119.446 73.5172 119.462 73.5033 119.475C73.4894 119.488 73.4729 119.498 73.4548 119.504L72.9717 119.71C72.954 119.719 72.9348 119.723 72.9153 119.724C72.8958 119.725 72.8763 119.721 72.8582 119.714C72.84 119.707 72.8236 119.696 72.8098 119.682C72.7961 119.668 72.7854 119.651 72.7784 119.633L70.6978 114.699C70.6825 114.664 70.6814 114.626 70.6947 114.591C70.7079 114.556 70.7345 114.527 70.7686 114.512L74.2665 113.037C74.2845 113.025 74.3049 113.017 74.3264 113.014C74.3478 113.011 74.3696 113.013 74.3901 113.02C74.4107 113.027 74.4293 113.038 74.4448 113.053C74.4602 113.069 74.4719 113.087 74.4791 113.108H74.4726ZM77.1009 119.337L78.6726 123.066C79.0785 124.026 78.8144 124.664 78.2732 124.999C77.5647 125.456 76.7659 125.36 76.2441 124.194L75.9027 126.287C75.8996 126.306 75.8928 126.324 75.8826 126.34C75.8724 126.356 75.8591 126.37 75.8435 126.381C75.8279 126.392 75.8103 126.399 75.7917 126.403C75.773 126.407 75.7538 126.407 75.7352 126.403C75.712 126.4 75.6902 126.39 75.672 126.376C75.6539 126.361 75.6401 126.342 75.6321 126.32L75.3165 125.559C75.3071 125.535 75.3071 125.507 75.3165 125.482L75.7674 122.983L74.9622 121.05L73.8091 121.533C73.7918 121.541 73.7732 121.545 73.7544 121.545C73.7355 121.545 73.7169 121.541 73.6995 121.534C73.6821 121.527 73.6663 121.516 73.6531 121.503C73.6398 121.489 73.6294 121.473 73.6223 121.456L73.3775 120.876C73.3702 120.859 73.3663 120.84 73.3662 120.822C73.3661 120.803 73.3698 120.784 73.377 120.767C73.3842 120.749 73.3948 120.733 73.4081 120.72C73.4215 120.707 73.4374 120.697 73.4548 120.689L76.9463 119.214C76.9645 119.212 76.9832 119.213 77.001 119.217C77.0189 119.222 77.0355 119.231 77.05 119.242C77.0645 119.254 77.0765 119.268 77.0852 119.284C77.094 119.3 77.0993 119.318 77.1009 119.337ZM75.6772 120.773L76.9656 123.756C77.2168 124.348 77.5324 124.4 77.8159 124.213C78.0993 124.026 78.138 123.814 77.9383 123.343L76.6499 120.367L75.6772 120.773Z" fill="#141E4B"></path>
    <path d="M146.272 101.938C151.386 101.935 156.434 103.099 161.031 105.339C165.629 107.579 169.656 110.837 172.806 114.866" stroke="#0050FF" stroke-width="2.51228" stroke-linejoin="round"></path>
    <path d="M18.1396 162.071C14.155 158.919 10.9359 154.905 8.72357 150.331C6.51129 145.757 5.36329 140.741 5.36565 135.66" stroke="#0050FF" stroke-width="2.51228" stroke-linejoin="round"></path>
  </g>
  <defs>
    <clipPath id="clip0_1603_19662">
      <rect width="171.878" height="150.26" fill="white" transform="translate(4 15)"></rect>
    </clipPath>
  </defs>
</svg>
